Cyclones Introduction
…
                               quad=rep(modquads$quad,each=2),
                               model=rep(c("asymp","lm"),20),
                               type="AIC"),
                      map2(modquads$model_asymp,modquads$model_lm,~BIC(.x,.y)) %>%
                        bind_rows() %>%
                        rename(score=BIC) %>%
                        mutate(USA_SSHS=rep(modquads$USA_SSHS,each=2),
                               quad=rep(modquads$quad,each=2),
                               model=rep(c("asymp","lm"),20),
                               type="BIC"))%>%
  group_by(USA_SSHS,quad) %>%
  mutate(bestAIC=model[score==min(score[type=="AIC"])],
         bestBIC=model[score==min(score[type=="BIC"])])

## # A tibble: 80 × 8
## # Groups:   USA_SSHS, quad [20]
##       df  score USA_SSHS quad  model type  bestAIC bestBIC
##    <dbl>  <dbl>    <int> <chr> <chr> <chr> <chr>   <chr>  
##  1     4 98137.        1 NE    asymp AIC   asymp   asymp  
##  2     3 98519.        1 NE    lm    AIC   asymp   asymp  
##  3     4 74990.        1 NW    asymp AIC   asymp   asymp  
##  4     3 75260.        1 NW    lm    AIC   asymp   asymp  
##  5     4 97396.        1 SE    asymp AIC   asymp   asymp  
##  6     3 97730.        1 SE    lm    AIC   asymp   asymp  
##  7     4 96397.        1 SW    asymp AIC   asymp   asymp  
##  8     3 96732.        1 SW    lm    AIC   asymp   asymp  
##  9     4 40656.        2 NE    asymp AIC   asymp   asymp  
## 10     3 40983.        2 NE    lm    AIC   asymp   asymp  
## # ℹ 70 more rows
…
